<?xml version="1.0" encoding="UTF-8" standalone="no"?>
<svg
   xmlns:dc="http://purl.org/dc/elements/1.1/"
   xmlns:cc="http://creativecommons.org/ns#"
   xmlns:rdf="http://www.w3.org/1999/02/22-rdf-syntax-ns#"
   xmlns:svg="http://www.w3.org/2000/svg"
   xmlns="http://www.w3.org/2000/svg"
   xmlns:sodipodi="http://sodipodi.sourceforge.net/DTD/sodipodi-0.dtd"
   xmlns:inkscape="http://www.inkscape.org/namespaces/inkscape"
   viewBox="0 0 16 16"
   version="1.1"
   id="svg6"
   sodipodi:docname="process-pause.svg"
   width="16"
   height="16"
   inkscape:version="0.92.4 (5da689c313, 2019-01-14)">
  <metadata
     id="metadata10">
    <rdf:RDF>
      <cc:Work
         rdf:about="">
        <dc:format>image/svg+xml</dc:format>
        <dc:type
           rdf:resource="http://purl.org/dc/dcmitype/StillImage" />
        <dc:title />
      </cc:Work>
    </rdf:RDF>
  </metadata>
  <sodipodi:namedview
     pagecolor="#ffffff"
     bordercolor="#666666"
     borderopacity="1"
     objecttolerance="10"
     gridtolerance="10"
     guidetolerance="10"
     inkscape:pageopacity="0"
     inkscape:pageshadow="2"
     inkscape:window-width="1920"
     inkscape:window-height="1017"
     id="namedview8"
     showgrid="false"
     inkscape:zoom="29.5"
     inkscape:cx="-9.9369718"
     inkscape:cy="8.8989863"
     inkscape:window-x="1912"
     inkscape:window-y="-8"
     inkscape:window-maximized="1"
     inkscape:current-layer="svg6" />
  <defs
     id="defs3051">
    <style
       type="text/css"
       id="current-color-scheme">
      .ColorScheme-Text {
        color:#4d4d4d;
      }
      </style>
    <inkscape:path-effect
       effect="bspline"
       id="path-effect851"
       is_visible="true"
       weight="33.333333"
       steps="2"
       helper_size="0"
       apply_no_weight="true"
       apply_with_weight="true"
       only_selected="false" />
  </defs>
  <g
     id="g50"
     transform="matrix(0.53138797,0,0,0.43681892,3.7488962,4.5054486)">
    <g
       id="g118">
      <g
         transform="translate(-5.976955)"
         id="g57-8">
        <path
           id="path17-2-1"
           d="M 8.9769552,9.9769566 V 14 H 13 V 9.9769566 Z"
           style="color:#4d4d4d;fill:#a09e9e;fill-opacity:1;stroke:none;stroke-width:2.01152229"
           inkscape:connector-curvature="0" />
        <path
           id="path17-2-5-0"
           d="m 8.9769557,2.0000002 v 4.023044 H 13 v -4.023044 z"
           style="color:#4d4d4d;fill:#a09e9e;fill-opacity:1;stroke:none;stroke-width:2.01152229"
           inkscape:connector-curvature="0" />
        <path
           id="path17-2-8-5"
           d="M 8.976955,5.9884783 V 10.011522 H 13 V 5.9884783 Z"
           style="color:#4d4d4d;fill:#a09e9e;fill-opacity:1;stroke:none;stroke-width:2.01152229"
           inkscape:connector-curvature="0" />
      </g>
      <path
         style="color:#4d4d4d;fill:#a09e9e;fill-opacity:1;stroke:none"
         d="M 4,14 V 2 H 3 v 12 z"
         id="path4-3-4"
         inkscape:connector-curvature="0" />
      <path
         style="color:#4d4d4d;fill:#a09e9e;fill-opacity:1;stroke:none"
         d="M 5.0084746,14 V 2.0000002 h -1 V 14 Z"
         id="path4-3-4-5"
         inkscape:connector-curvature="0" />
      <path
         style="color:#4d4d4d;fill:#a09e9e;fill-opacity:1;stroke:none"
         d="M 6.0084746,14 V 2.0000002 h -1 V 14 Z"
         id="path4-3-4-1"
         inkscape:connector-curvature="0" />
      <path
         style="color:#4d4d4d;fill:#a09e9e;fill-opacity:1;stroke:none"
         d="M 7.0084746,14 V 2.0000003 h -1 V 14 Z"
         id="path4-3-4-4"
         inkscape:connector-curvature="0" />
    </g>
    <g
       id="g118-3"
       transform="translate(5.976955)">
      <g
         transform="translate(-5.976955)"
         id="g57-8-6">
        <path
           id="path17-2-1-2"
           d="M 8.9769552,9.9769566 V 14 H 13 V 9.9769566 Z"
           style="color:#4d4d4d;fill:#a09e9e;fill-opacity:1;stroke:none;stroke-width:2.01152229"
           inkscape:connector-curvature="0" />
        <path
           id="path17-2-5-0-4"
           d="m 8.9769557,2.0000002 v 4.023044 H 13 v -4.023044 z"
           style="color:#4d4d4d;fill:#a09e9e;fill-opacity:1;stroke:none;stroke-width:2.01152229"
           inkscape:connector-curvature="0" />
        <path
           id="path17-2-8-5-5"
           d="M 8.976955,5.9884783 V 10.011522 H 13 V 5.9884783 Z"
           style="color:#4d4d4d;fill:#a09e9e;fill-opacity:1;stroke:none;stroke-width:2.01152229"
           inkscape:connector-curvature="0" />
      </g>
      <path
         style="color:#4d4d4d;fill:#a09e9e;fill-opacity:1;stroke:none"
         d="M 4,14 V 2 H 3 v 12 z"
         id="path4-3-4-9"
         inkscape:connector-curvature="0" />
      <path
         style="color:#4d4d4d;fill:#a09e9e;fill-opacity:1;stroke:none"
         d="M 5.0084746,14 V 2.0000002 h -1 V 14 Z"
         id="path4-3-4-5-0"
         inkscape:connector-curvature="0" />
      <path
         style="color:#4d4d4d;fill:#a09e9e;fill-opacity:1;stroke:none"
         d="M 6.0084746,14 V 2.0000002 h -1 V 14 Z"
         id="path4-3-4-1-1"
         inkscape:connector-curvature="0" />
      <path
         style="color:#4d4d4d;fill:#a09e9e;fill-opacity:1;stroke:none"
         d="M 7.0084746,14 V 2.0000003 h -1 V 14 Z"
         id="path4-3-4-4-8"
         inkscape:connector-curvature="0" />
    </g>
  </g>
  <path
     inkscape:connector-curvature="0"
     style="fill:#a09e9e;fill-opacity:1;stroke:none"
     class="ColorScheme-NegativeText"
     d="M 7.9999997,2 C 6.7549783,2.001812 5.5413543,2.390881 4.5273435,3.113281 l 0.71875,0.71875 C 6.0627291,3.290888 7.0203429,3.001566 7.9999997,3 10.761424,3 13,5.238576 13,7.9999998 12.9984,8.9796566 12.709112,9.9372705 12.167969,10.753906 l 0.716797,0.716797 C 13.607476,10.457467 13.997215,9.2445665 14,7.9999998 14.000008,4.686294 11.313714,2 7.9999997,2 Z M 3.115234,4.529297 C 2.3925237,5.542533 2.0027848,6.7554332 2,7.9999998 1.9999917,11.313706 4.6862855,14 7.9999997,14 9.2450212,13.99819 10.458645,13.609119 11.472656,12.886719 l -0.71875,-0.71875 C 9.9372704,12.709112 8.9796565,12.998434 7.9999997,13 5.238576,13 2.9999999,10.761423 3,7.9999998 3.0015661,7.0203431 3.2908876,6.0627294 3.8320309,5.246094 Z M 11,8.9999998 H 4.9999997 11 v -2 z"
     id="path4-6"
     sodipodi:nodetypes="ccccccccccccccccccccccc" />
</svg>
